somador_completo_case/simulation/qsim/somador_completo_case.msim.vcd
$comment
	File created using the following command:
		vcd file somador_completo_case.msim.vcd -direction
$end
$date
	Sat Oct 02 19:30:31 2021
$end
$version
	ModelSim Version 2020.1
$end
$timescale
	1ps
$end

$scope module somador_completo_case_vlg_vec_tst $end
$var reg 1 ! A $end
$var reg 1 " B $end
$var reg 1 # Cin $end
$var wire 1 $ Cout $end
$var wire 1 % S $end

$scope module i1 $end
$var wire 1 & gnd $end
$var wire 1 ' vcc $end
$var wire 1 ( unknown $end
$var tri1 1 ) devclrn $end
$var tri1 1 * devpor $end
$var tri1 1 + devoe $end
$var wire 1 , ~QUARTUS_CREATED_GND~I_combout $end
$var wire 1 - Cin~input_o $end
$var wire 1 . A~input_o $end
$var wire 1 / B~input_o $end
$var wire 1 0 WideOr0~0_combout $end
$var wire 1 1 WideOr1~0_combout $end
$upscope $end
$upscope $end
$enddefinitions $end
#0
$dumpvars
0!
0"
0#
0$
0%
0&
1'
x(
1)
1*
1+
0,
0-
0.
0/
00
01
$end
#10000
1#
1-
10
1%
#20000
1"
0#
1/
0-
#30000
1#
1-
11
00
0%
1$
#40000
1!
0"
0#
1.
0/
0-
01
10
1%
0$
#50000
1#
1-
11
00
0%
1$
#60000
1"
0#
1/
0-
#70000
1#
1-
10
1%
#80000
0!
0"
0#
0.
0/
0-
01
00
0%
0$
#90000
1#
1-
10
1%
#100000
1"
0#
1/
0-
#110000
1#
1-
11
00
0%
1$
#120000
1!
0"
0#
1.
0/
0-
01
10
1%
0$
#130000
1#
1-
11
00
0%
1$
#140000
1"
0#
1/
0-
#150000
1#
1-
10
1%
#160000
0!
0"
0#
0.
0/
0-
01
00
0%
0$
#170000
1#
1-
10
1%
#180000
1"
0#
1/
0-
#190000
1#
1-
11
00
0%
1$
#200000
1!
0"
0#
1.
0/
0-
01
10
1%
0$
#210000
1#
1-
11
00
0%
1$
#220000
1"
0#
1/
0-
#230000
1#
1-
10
1%
#240000
0!
0"
0#
0.
0/
0-
01
00
0%
0$
#250000
1#
1-
10
1%
#260000
1"
0#
1/
0-
#270000
1#
1-
11
00
0%
1$
#280000
1!
0"
0#
1.
0/
0-
01
10
1%
0$
#290000
1#
1-
11
00
0%
1$
#300000
1"
0#
1/
0-
#310000
1#
1-
10
1%
#320000
0!
0"
0#
0.
0/
0-
01
00
0%
0$
#330000
1#
1-
10
1%
#340000
1"
0#
1/
0-
#350000
1#
1-
11
00
0%
1$
#360000
1!
0"
0#
1.
0/
0-
01
10
1%
0$
#370000
1#
1-
11
00
0%
1$
#380000
1"
0#
1/
0-
#390000
1#
1-
10
1%
#400000
0!
0"
0#
0.
0/
0-
01
00
0%
0$
#410000
1#
1-
10
1%
#420000
1"
0#
1/
0-
#430000
1#
1-
11
00
0%
1$
#440000
1!
0"
0#
1.
0/
0-
01
10
1%
0$
#450000
1#
1-
11
00
0%
1$
#460000
1"
0#
1/
0-
#470000
1#
1-
10
1%
#480000
0!
0"
0#
0.
0/
0-
01
00
0%
0$
#490000
1#
1-
10
1%
#500000
1"
0#
1/
0-
#510000
1#
1-
11
00
0%
1$
#520000
1!
0"
0#
1.
0/
0-
01
10
1%
0$
#530000
1#
1-
11
00
0%
1$
#540000
1"
0#
1/
0-
#550000
1#
1-
10
1%
#560000
0!
0"
0#
0.
0/
0-
01
00
0%
0$
#570000
1#
1-
10
1%
#580000
1"
0#
1/
0-
#590000
1#
1-
11
00
0%
1$
#600000
1!
0"
0#
1.
0/
0-
01
10
1%
0$
#610000
1#
1-
11
00
0%
1$
#620000
1"
0#
1/
0-
#630000
1#
1-
10
1%
#640000
0!
0"
0#
0.
0/
0-
01
00
0%
0$
#650000
1#
1-
10
1%
#660000
1"
0#
1/
0-
#670000
1#
1-
11
00
0%
1$
#680000
1!
0"
0#
1.
0/
0-
01
10
1%
0$
#690000
1#
1-
11
00
0%
1$
#700000
1"
0#
1/
0-
#710000
1#
1-
10
1%
#720000
0!
0"
0#
0.
0/
0-
01
00
0%
0$
#730000
1#
1-
10
1%
#740000
1"
0#
1/
0-
#750000
1#
1-
11
00
0%
1$
#760000
1!
0"
0#
1.
0/
0-
01
10
1%
0$
#770000
1#
1-
11
00
0%
1$
#780000
1"
0#
1/
0-
#790000
1#
1-
10
1%
#800000
0!
0"
0#
0.
0/
0-
01
00
0%
0$
#810000
1#
1-
10
1%
#820000
1"
0#
1/
0-
#830000
1#
1-
11
00
0%
1$
#840000
1!
0"
0#
1.
0/
0-
01
10
1%
0$
#850000
1#
1-
11
00
0%
1$
#860000
1"
0#
1/
0-
#870000
1#
1-
10
1%
#880000
0!
0"
0#
0.
0/
0-
01
00
0%
0$
#890000
1#
1-
10
1%
#900000
1"
0#
1/
0-
#910000
1#
1-
11
00
0%
1$
#920000
1!
0"
0#
1.
0/
0-
01
10
1%
0$
#930000
1#
1-
11
00
0%
1$
#940000
1"
0#
1/
0-
#950000
1#
1-
10
1%
#960000
0!
0"
0#
0.
0/
0-
01
00
0%
0$
#970000
1#
1-
10
1%
#980000
1"
0#
1/
0-
#990000
1#
1-
11
00
0%
1$
