display_comp/simulation/qsim/display_comp.msim.vcd
$comment
	File created using the following command:
		vcd file display_comp.msim.vcd -direction
$end
$date
	Fri Oct 01 17:19:14 2021
$end
$version
	ModelSim Version 2020.1
$end
$timescale
	1ps
$end

$scope module display_comp_vlg_vec_tst $end
$var reg 1 ! x1 $end
$var reg 1 " x2 $end
$var reg 1 # x3 $end
$var reg 1 $ x4 $end
$var wire 1 % SA $end
$var wire 1 & SB $end
$var wire 1 ' SC $end
$var wire 1 ( SD $end
$var wire 1 ) SE $end
$var wire 1 * SF $end
$var wire 1 + SG $end

$scope module i1 $end
$var wire 1 , gnd $end
$var wire 1 - vcc $end
$var wire 1 . unknown $end
$var tri1 1 / devclrn $end
$var tri1 1 0 devpor $end
$var tri1 1 1 devoe $end
$var wire 1 2 ~QUARTUS_CREATED_GND~I_combout $end
$var wire 1 3 x3~input_o $end
$var wire 1 4 x4~input_o $end
$var wire 1 5 x1~input_o $end
$var wire 1 6 x2~input_o $end
$var wire 1 7 WideNor0~0_combout $end
$var wire 1 8 WideNor1~0_combout $end
$var wire 1 9 Equal4~0_combout $end
$var wire 1 : WideOr0~0_combout $end
$var wire 1 ; WideOr1~0_combout $end
$var wire 1 < WideOr2~0_combout $end
$var wire 1 = WideOr3~0_combout $end
$upscope $end
$upscope $end
$enddefinitions $end
#0
$dumpvars
0!
0"
0#
0$
1%
1&
1'
1(
1)
1*
0+
0,
1-
x.
1/
10
11
02
03
04
05
06
07
08
09
0:
0;
0<
0=
$end
#10000
1$
14
1<
1;
1:
17
0%
0(
0)
0*
#20000
1#
0$
13
04
0;
0:
19
07
1=
1+
1%
0'
1(
1)
#30000
1$
14
1;
09
1'
0)
#40000
1"
0#
0$
16
03
04
0<
1:
17
0%
0(
1*
#50000
1$
14
0:
18
07
1%
0&
1(
#60000
1#
0$
13
04
0;
1)
#70000
1$
14
1<
1;
1:
08
0=
0+
1&
0(
0)
0*
#80000
1!
0"
0#
0$
15
06
03
04
0<
0;
0:
1=
1+
1(
1)
1*
#90000
1$
14
1;
0)
#100000
1#
0$
13
04
0;
1)
#110000
1$
14
#120000
1"
0#
0$
16
03
04
#130000
1$
14
#140000
1#
0$
13
04
#150000
1$
14
#160000
0!
0"
0#
0$
05
06
03
04
0=
0+
#170000
1$
14
1<
1;
1:
17
0%
0(
0)
0*
#180000
1#
0$
13
04
0;
0:
19
07
1=
1+
1%
0'
1(
1)
#190000
1$
14
1;
09
1'
0)
#200000
1"
0#
0$
16
03
04
0<
1:
17
0%
0(
1*
#210000
1$
14
0:
18
07
1%
0&
1(
#220000
1#
0$
13
04
0;
1)
#230000
1$
14
1<
1;
1:
08
0=
0+
1&
0(
0)
0*
#240000
1!
0"
0#
0$
15
06
03
04
0<
0;
0:
1=
1+
1(
1)
1*
#250000
1$
14
1;
0)
#260000
1#
0$
13
04
0;
1)
#270000
1$
14
#280000
1"
0#
0$
16
03
04
#290000
1$
14
#300000
1#
0$
13
04
#310000
1$
14
#320000
0!
0"
0#
0$
05
06
03
04
0=
0+
#330000
1$
14
1<
1;
1:
17
0%
0(
0)
0*
#340000
1#
0$
13
04
0;
0:
19
07
1=
1+
1%
0'
1(
1)
#350000
1$
14
1;
09
1'
0)
#360000
1"
0#
0$
16
03
04
0<
1:
17
0%
0(
1*
#370000
1$
14
0:
18
07
1%
0&
1(
#380000
1#
0$
13
04
0;
1)
#390000
1$
14
1<
1;
1:
08
0=
0+
1&
0(
0)
0*
#400000
1!
0"
0#
0$
15
06
03
04
0<
0;
0:
1=
1+
1(
1)
1*
#410000
1$
14
1;
0)
#420000
1#
0$
13
04
0;
1)
#430000
1$
14
#440000
1"
0#
0$
16
03
04
#450000
1$
14
#460000
1#
0$
13
04
#470000
1$
14
#480000
0!
0"
0#
0$
05
06
03
04
0=
0+
#490000
1$
14
1<
1;
1:
17
0%
0(
0)
0*
#500000
1#
0$
13
04
0;
0:
19
07
1=
1+
1%
0'
1(
1)
#510000
1$
14
1;
09
1'
0)
#520000
1"
0#
0$
16
03
04
0<
1:
17
0%
0(
1*
#530000
1$
14
0:
18
07
1%
0&
1(
#540000
1#
0$
13
04
0;
1)
#550000
1$
14
1<
1;
1:
08
0=
0+
1&
0(
0)
0*
#560000
1!
0"
0#
0$
15
06
03
04
0<
0;
0:
1=
1+
1(
1)
1*
#570000
1$
14
1;
0)
#580000
1#
0$
13
04
0;
1)
#590000
1$
14
#600000
1"
0#
0$
16
03
04
#610000
1$
14
#620000
1#
0$
13
04
#630000
1$
14
#640000
0!
0"
0#
0$
05
06
03
04
0=
0+
#650000
1$
14
1<
1;
1:
17
0%
0(
0)
0*
#660000
1#
0$
13
04
0;
0:
19
07
1=
1+
1%
0'
1(
1)
#670000
1$
14
1;
09
1'
0)
#680000
1"
0#
0$
16
03
04
0<
1:
17
0%
0(
1*
#690000
1$
14
0:
18
07
1%
0&
1(
#700000
1#
0$
13
04
0;
1)
#710000
1$
14
1<
1;
1:
08
0=
0+
1&
0(
0)
0*
#720000
1!
0"
0#
0$
15
06
03
04
0<
0;
0:
1=
1+
1(
1)
1*
#730000
1$
14
1;
0)
#740000
1#
0$
13
04
0;
1)
#750000
1$
14
#760000
1"
0#
0$
16
03
04
#770000
1$
14
#780000
1#
0$
13
04
#790000
1$
14
#800000
0!
0"
0#
0$
05
06
03
04
0=
0+
#810000
1$
14
1<
1;
1:
17
0%
0(
0)
0*
#820000
1#
0$
13
04
0;
0:
19
07
1=
1+
1%
0'
1(
1)
#830000
1$
14
1;
09
1'
0)
#840000
1"
0#
0$
16
03
04
0<
1:
17
0%
0(
1*
#850000
1$
14
0:
18
07
1%
0&
1(
#860000
1#
0$
13
04
0;
1)
#870000
1$
14
1<
1;
1:
08
0=
0+
1&
0(
0)
0*
#880000
1!
0"
0#
0$
15
06
03
04
0<
0;
0:
1=
1+
1(
1)
1*
#890000
1$
14
1;
0)
#900000
1#
0$
13
04
0;
1)
#910000
1$
14
#920000
1"
0#
0$
16
03
04
#930000
1$
14
#940000
1#
0$
13
04
#950000
1$
14
#960000
0!
0"
0#
0$
05
06
03
04
0=
0+
#970000
1$
14
1<
1;
1:
17
0%
0(
0)
0*
#980000
1#
0$
13
04
0;
0:
19
07
1=
1+
1%
0'
1(
1)
#990000
1$
14
1;
09
1'
0)
