divisor_clock/simulation/qsim/divisor_clock.msim.vcd
$comment
	File created using the following command:
		vcd file divisor_clock.msim.vcd -direction
$end
$date
	Sun Oct 03 18:08:04 2021
$end
$version
	ModelSim Version 2020.1
$end
$timescale
	1ps
$end

$scope module divisor_clock_vlg_vec_tst $end
$var reg 1 ! clock_input $end
$var reg 1 " reset $end
$var wire 1 # S $end

$scope module i1 $end
$var wire 1 $ gnd $end
$var wire 1 % vcc $end
$var wire 1 & unknown $end
$var tri1 1 ' devclrn $end
$var tri1 1 ( devpor $end
$var tri1 1 ) devoe $end
$var wire 1 * ~QUARTUS_CREATED_GND~I_combout $end
$var wire 1 + clock_input~input_o $end
$var wire 1 , reset~input_o $end
$var wire 1 - b1|contador~0_combout $end
$var wire 1 . b1|contador[0]~feeder_combout $end
$var wire 1 / b1|clock_output~0_combout $end
$var wire 1 0 b1|clock_output~feeder_combout $end
$var wire 1 1 b1|clock_output~q $end
$var wire 1 2 b2|contador~0_combout $end
$var wire 1 3 b2|contador[0]~feeder_combout $end
$var wire 1 4 b2|clock_output~0_combout $end
$var wire 1 5 b2|clock_output~feeder_combout $end
$var wire 1 6 b2|clock_output~q $end
$var wire 1 7 b2|contador [1] $end
$var wire 1 8 b2|contador [0] $end
$var wire 1 9 b1|contador [1] $end
$var wire 1 : b1|contador [0] $end
$upscope $end
$upscope $end
$enddefinitions $end
#0
$dumpvars
0!
1"
0#
0$
1%
x&
1'
1(
1)
0*
0+
1,
1-
1.
0/
00
01
12
13
04
05
06
08
z7
0:
z9
$end
#5000
1!
1+
1:
1/
0-
0.
10
#10000
0!
0+
#15000
1!
1+
0:
11
1-
1.
18
14
02
03
15
#20000
0!
0+
#25000
1!
1+
1:
0/
0-
0.
00
#30000
0!
0+
#35000
1!
1+
0:
01
1-
1.
#40000
0!
0+
#45000
1!
1+
1:
1/
0-
0.
10
#50000
0!
0+
#55000
1!
1+
0:
11
1-
1.
08
16
1#
12
13
#60000
0!
0+
#65000
1!
1+
1:
0/
0-
0.
00
#70000
0!
0+
#75000
1!
1+
0:
01
1-
1.
#80000
0!
0+
#85000
1!
1+
1:
1/
0-
0.
10
#90000
0!
0+
#95000
1!
1+
0:
11
1-
1.
18
04
02
03
05
#100000
0!
0+
#105000
1!
1+
1:
0/
0-
0.
00
#110000
0!
0+
#115000
1!
1+
0:
01
1-
1.
#120000
0!
0+
#125000
1!
1+
1:
1/
0-
0.
10
#130000
0!
0+
#135000
1!
1+
0:
11
1-
1.
08
06
0#
12
13
#140000
0!
0+
#145000
1!
1+
1:
0/
0-
0.
00
#150000
0!
0+
#155000
1!
1+
0:
01
1-
1.
#160000
0!
0+
#165000
1!
1+
1:
1/
0-
0.
10
#170000
0!
0+
#175000
1!
1+
0:
11
1-
1.
18
14
02
03
15
#180000
0!
0+
#185000
1!
1+
1:
0/
0-
0.
00
#190000
0!
0+
#195000
1!
1+
0:
01
1-
1.
#200000
0!
0+
#205000
1!
1+
1:
1/
0-
0.
10
#210000
0!
0+
#215000
1!
1+
0:
11
1-
1.
08
16
1#
12
13
#220000
0!
0+
#225000
1!
1+
1:
0/
0-
0.
00
#230000
0!
0+
#235000
1!
1+
0:
01
1-
1.
#240000
0!
0+
#245000
1!
1+
1:
1/
0-
0.
10
#250000
0!
0+
#255000
1!
1+
0:
11
1-
1.
18
04
02
03
05
#260000
0!
0+
#265000
1!
1+
1:
0/
0-
0.
00
#270000
0!
0+
#275000
1!
1+
0:
01
1-
1.
#280000
0!
0+
#285000
1!
1+
1:
1/
0-
0.
10
#290000
0!
0+
#295000
1!
1+
0:
11
1-
1.
08
06
0#
12
13
#300000
0!
0+
#305000
1!
1+
1:
0/
0-
0.
00
#310000
0!
0+
#315000
1!
1+
0:
01
1-
1.
#320000
0!
0+
#325000
1!
1+
1:
1/
0-
0.
10
#330000
0!
0+
#335000
1!
1+
0:
11
1-
1.
18
14
02
03
15
#340000
0!
0+
#345000
1!
1+
1:
0/
0-
0.
00
#350000
0!
0+
#355000
1!
1+
0:
01
1-
1.
#360000
0!
0+
#365000
1!
1+
1:
1/
0-
0.
10
#370000
0!
0+
#375000
1!
1+
0:
11
1-
1.
08
16
1#
12
13
#380000
0!
0+
#385000
1!
1+
1:
0/
0-
0.
00
#390000
0!
0+
#395000
1!
1+
0:
01
1-
1.
#400000
0!
0+
#405000
1!
1+
1:
1/
0-
0.
10
#410000
0!
0+
#415000
1!
1+
0:
11
1-
1.
18
04
02
03
05
#420000
0!
0+
#425000
1!
1+
1:
0/
0-
0.
00
#430000
0!
0+
#435000
1!
1+
0:
01
1-
1.
#440000
0!
0+
#445000
1!
1+
1:
1/
0-
0.
10
#450000
0!
0+
#455000
1!
1+
0:
11
1-
1.
08
06
0#
12
13
#460000
0!
0+
#465000
1!
1+
1:
0/
0-
0.
00
#470000
0!
0+
#475000
1!
1+
0:
01
1-
1.
#480000
0!
0+
#485000
1!
1+
1:
1/
0-
0.
10
#490000
0!
0+
#495000
1!
1+
0:
11
1-
1.
18
14
02
03
15
#500000
0!
0+
#505000
1!
1+
1:
0/
0-
0.
00
#510000
0!
0+
#515000
1!
1+
0:
01
1-
1.
#520000
0!
0+
#525000
1!
1+
1:
1/
0-
0.
10
#530000
0!
0+
#535000
1!
1+
0:
11
1-
1.
08
16
1#
12
13
#540000
0!
0+
#545000
1!
1+
1:
0/
0-
0.
00
#550000
0!
0+
#555000
1!
1+
0:
01
1-
1.
#560000
0!
0+
#565000
1!
1+
1:
1/
0-
0.
10
#570000
0!
0+
#575000
1!
1+
0:
11
1-
1.
18
04
02
03
05
#580000
0!
0+
#585000
1!
1+
1:
0/
0-
0.
00
#590000
0!
0+
#595000
1!
1+
0:
01
1-
1.
#600000
0!
0+
#605000
1!
1+
1:
1/
0-
0.
10
#610000
0!
0+
#615000
1!
1+
0:
11
1-
1.
08
06
0#
12
13
#620000
0!
0+
#625000
1!
1+
1:
0/
0-
0.
00
#630000
0!
0+
#635000
1!
1+
0:
01
1-
1.
#640000
0!
0+
#645000
1!
1+
1:
1/
0-
0.
10
#650000
0!
0+
#655000
1!
1+
0:
11
1-
1.
18
14
02
03
15
#660000
0!
0+
#665000
1!
1+
1:
0/
0-
0.
00
#670000
0!
0+
#675000
1!
1+
0:
01
1-
1.
#680000
0!
0+
#685000
1!
1+
1:
1/
0-
0.
10
#690000
0!
0+
#695000
1!
1+
0:
11
1-
1.
08
16
1#
12
13
#700000
0!
0+
#705000
1!
1+
1:
0/
0-
0.
00
#710000
0!
0+
#715000
1!
1+
0:
01
1-
1.
#720000
0!
0+
#725000
1!
1+
1:
1/
0-
0.
10
#730000
0!
0+
#735000
1!
1+
0:
11
1-
1.
18
04
02
03
05
#740000
0!
0+
#745000
1!
1+
1:
0/
0-
0.
00
#750000
0!
0+
#755000
1!
1+
0:
01
1-
1.
#760000
0!
0+
#765000
1!
1+
1:
1/
0-
0.
10
#770000
0!
0+
#775000
1!
1+
0:
11
1-
1.
08
06
0#
12
13
#780000
0!
0+
#785000
1!
1+
1:
0/
0-
0.
00
#790000
0!
0+
#795000
1!
1+
0:
01
1-
1.
#800000
0!
0+
#805000
1!
1+
1:
1/
0-
0.
10
#810000
0!
0+
#815000
1!
1+
0:
11
1-
1.
18
14
02
03
15
#820000
0!
0+
#825000
1!
1+
1:
0/
0-
0.
00
#830000
0!
0+
#835000
1!
1+
0:
01
1-
1.
#840000
0!
0+
#845000
1!
1+
1:
1/
0-
0.
10
#850000
0!
0+
#855000
1!
1+
0:
11
1-
1.
08
16
1#
12
13
#860000
0!
0+
#865000
1!
1+
1:
0/
0-
0.
00
#870000
0!
0+
#875000
1!
1+
0:
01
1-
1.
#880000
0!
0+
#885000
1!
1+
1:
1/
0-
0.
10
#890000
0!
0+
#895000
1!
1+
0:
11
1-
1.
18
04
02
03
05
#900000
0!
0+
#905000
1!
1+
1:
0/
0-
0.
00
#910000
0!
0+
#915000
1!
1+
0:
01
1-
1.
#920000
0!
0+
#925000
1!
1+
1:
1/
0-
0.
10
#930000
0!
0+
#935000
1!
1+
0:
11
1-
1.
08
06
0#
12
13
#940000
0!
0+
#945000
1!
1+
1:
0/
0-
0.
00
#950000
0!
0+
#955000
1!
1+
0:
01
1-
1.
#960000
0!
0+
#965000
1!
1+
1:
1/
0-
0.
10
#970000
0!
0+
#975000
1!
1+
0:
11
1-
1.
18
14
02
03
15
#980000
0!
0+
#985000
1!
1+
1:
0/
0-
0.
00
#990000
0!
0+
#995000
1!
1+
0:
01
1-
1.
