comparador_comportamental/simulation/qsim/comparador_comportamental.msim.vcd
$comment
	File created using the following command:
		vcd file comparador_comportamental.msim.vcd -direction
$end
$date
	Sat Oct 02 12:24:49 2021
$end
$version
	ModelSim Version 2020.1
$end
$timescale
	1ps
$end

$scope module comparador_comportamental_vlg_vec_tst $end
$var reg 2 ! x [1:0] $end
$var reg 2 " y [1:0] $end
$var wire 1 # igual $end
$var wire 1 $ maior $end
$var wire 1 % menor $end

$scope module i1 $end
$var wire 1 & gnd $end
$var wire 1 ' vcc $end
$var wire 1 ( unknown $end
$var tri1 1 ) devclrn $end
$var tri1 1 * devpor $end
$var tri1 1 + devoe $end
$var wire 1 , ~QUARTUS_CREATED_GND~I_combout $end
$var wire 1 - x[0]~input_o $end
$var wire 1 . y[1]~input_o $end
$var wire 1 / y[0]~input_o $end
$var wire 1 0 x[1]~input_o $end
$var wire 1 1 menor~0_combout $end
$var wire 1 2 Equal0~0_combout $end
$var wire 1 3 maior~0_combout $end
$upscope $end
$upscope $end
$enddefinitions $end
#0
$dumpvars
b0 !
b0 "
1#
0$
0%
0&
1'
x(
1)
1*
1+
0,
0-
0.
0/
00
11
02
03
$end
#10000
b1 "
1/
12
01
1%
0#
#20000
b11 "
b10 "
0/
1.
#30000
b11 "
1/
#40000
b1 !
b1 "
b0 "
0/
0.
1-
11
13
1$
0%
#50000
b1 "
1/
02
03
0$
1#
#60000
b11 "
b10 "
0/
1.
12
01
1%
0#
#70000
b11 "
1/
#80000
b11 !
b10 !
b1 "
b0 "
0/
0.
0-
10
11
13
1$
0%
#90000
b1 "
1/
#100000
b11 "
b10 "
0/
1.
02
03
0$
1#
#110000
b11 "
1/
12
01
1%
0#
#120000
b11 !
b1 "
b0 "
0/
0.
1-
11
13
1$
0%
#130000
b1 "
1/
#140000
b11 "
b10 "
0/
1.
#150000
b11 "
1/
02
03
0$
1#
#160000
b1 !
b0 !
b1 "
b0 "
0/
0.
0-
00
#170000
b1 "
1/
12
01
1%
0#
#180000
b11 "
b10 "
0/
1.
#190000
b11 "
1/
#200000
b1 !
b1 "
b0 "
0/
0.
1-
11
13
1$
0%
#210000
b1 "
1/
02
03
0$
1#
#220000
b11 "
b10 "
0/
1.
12
01
1%
0#
#230000
b11 "
1/
#240000
b11 !
b10 !
b1 "
b0 "
0/
0.
0-
10
11
13
1$
0%
#250000
b1 "
1/
#260000
b11 "
b10 "
0/
1.
02
03
0$
1#
#270000
b11 "
1/
12
01
1%
0#
#280000
b11 !
b1 "
b0 "
0/
0.
1-
11
13
1$
0%
#290000
b1 "
1/
#300000
b11 "
b10 "
0/
1.
#310000
b11 "
1/
02
03
0$
1#
#320000
b1 !
b0 !
b1 "
b0 "
0/
0.
0-
00
#330000
b1 "
1/
12
01
1%
0#
#340000
b11 "
b10 "
0/
1.
#350000
b11 "
1/
#360000
b1 !
b1 "
b0 "
0/
0.
1-
11
13
1$
0%
#370000
b1 "
1/
02
03
0$
1#
#380000
b11 "
b10 "
0/
1.
12
01
1%
0#
#390000
b11 "
1/
#400000
b11 !
b10 !
b1 "
b0 "
0/
0.
0-
10
11
13
1$
0%
#410000
b1 "
1/
#420000
b11 "
b10 "
0/
1.
02
03
0$
1#
#430000
b11 "
1/
12
01
1%
0#
#440000
b11 !
b1 "
b0 "
0/
0.
1-
11
13
1$
0%
#450000
b1 "
1/
#460000
b11 "
b10 "
0/
1.
#470000
b11 "
1/
02
03
0$
1#
#480000
b1 !
b0 !
b1 "
b0 "
0/
0.
0-
00
#490000
b1 "
1/
12
01
1%
0#
#500000
b11 "
b10 "
0/
1.
#510000
b11 "
1/
#520000
b1 !
b1 "
b0 "
0/
0.
1-
11
13
1$
0%
#530000
b1 "
1/
02
03
0$
1#
#540000
b11 "
b10 "
0/
1.
12
01
1%
0#
#550000
b11 "
1/
#560000
b11 !
b10 !
b1 "
b0 "
0/
0.
0-
10
11
13
1$
0%
#570000
b1 "
1/
#580000
b11 "
b10 "
0/
1.
02
03
0$
1#
#590000
b11 "
1/
12
01
1%
0#
#600000
b11 !
b1 "
b0 "
0/
0.
1-
11
13
1$
0%
#610000
b1 "
1/
#620000
b11 "
b10 "
0/
1.
#630000
b11 "
1/
02
03
0$
1#
#640000
b1 !
b0 !
b1 "
b0 "
0/
0.
0-
00
#650000
b1 "
1/
12
01
1%
0#
#660000
b11 "
b10 "
0/
1.
#670000
b11 "
1/
#680000
b1 !
b1 "
b0 "
0/
0.
1-
11
13
1$
0%
#690000
b1 "
1/
02
03
0$
1#
#700000
b11 "
b10 "
0/
1.
12
01
1%
0#
#710000
b11 "
1/
#720000
b11 !
b10 !
b1 "
b0 "
0/
0.
0-
10
11
13
1$
0%
#730000
b1 "
1/
#740000
b11 "
b10 "
0/
1.
02
03
0$
1#
#750000
b11 "
1/
12
01
1%
0#
#760000
b11 !
b1 "
b0 "
0/
0.
1-
11
13
1$
0%
#770000
b1 "
1/
#780000
b11 "
b10 "
0/
1.
#790000
b11 "
1/
02
03
0$
1#
#800000
b1 !
b0 !
b1 "
b0 "
0/
0.
0-
00
#810000
b1 "
1/
12
01
1%
0#
#820000
b11 "
b10 "
0/
1.
#830000
b11 "
1/
#840000
b1 !
b1 "
b0 "
0/
0.
1-
11
13
1$
0%
#850000
b1 "
1/
02
03
0$
1#
#860000
b11 "
b10 "
0/
1.
12
01
1%
0#
#870000
b11 "
1/
#880000
b11 !
b10 !
b1 "
b0 "
0/
0.
0-
10
11
13
1$
0%
#890000
b1 "
1/
#900000
b11 "
b10 "
0/
1.
02
03
0$
1#
#910000
b11 "
1/
12
01
1%
0#
#920000
b11 !
b1 "
b0 "
0/
0.
1-
11
13
1$
0%
#930000
b1 "
1/
#940000
b11 "
b10 "
0/
1.
#950000
b11 "
1/
02
03
0$
1#
#960000
b1 !
b0 !
b1 "
b0 "
0/
0.
0-
00
#970000
b1 "
1/
12
01
1%
0#
#980000
b11 "
b10 "
0/
1.
#990000
b11 "
1/
