bcd_display/simulation/qsim/bcd_display.msim.vcd
$comment
	File created using the following command:
		vcd file bcd_display.msim.vcd -direction
$end
$date
	Fri Oct 01 11:31:17 2021
$end
$version
	ModelSim Version 2020.1
$end
$timescale
	1ps
$end

$scope module bcd_display_vlg_vec_tst $end
$var reg 1 ! x1 $end
$var reg 1 " x2 $end
$var reg 1 # x3 $end
$var reg 1 $ x4 $end
$var wire 1 % sa $end
$var wire 1 & sb $end
$var wire 1 ' sc $end
$var wire 1 ( sd $end
$var wire 1 ) se $end
$var wire 1 * sf $end
$var wire 1 + sg $end

$scope module i1 $end
$var wire 1 , gnd $end
$var wire 1 - vcc $end
$var wire 1 . unknown $end
$var tri1 1 / devclrn $end
$var tri1 1 0 devpor $end
$var tri1 1 1 devoe $end
$var wire 1 2 ~QUARTUS_CREATED_GND~I_combout $end
$var wire 1 3 x3~input_o $end
$var wire 1 4 x2~input_o $end
$var wire 1 5 x1~input_o $end
$var wire 1 6 x4~input_o $end
$var wire 1 7 sa~0_combout $end
$var wire 1 8 sb~0_combout $end
$var wire 1 9 sc~0_combout $end
$var wire 1 : sd~0_combout $end
$var wire 1 ; se~0_combout $end
$var wire 1 < sf~0_combout $end
$var wire 1 = sg~0_combout $end
$upscope $end
$upscope $end
$enddefinitions $end
#0
$dumpvars
0!
0"
0#
0$
1%
1&
1'
1(
1)
1*
0+
0,
1-
x.
1/
10
11
02
03
04
05
06
17
18
19
1:
1;
1<
0=
$end
#10000
1$
16
0<
0;
0:
07
0%
0(
0)
0*
#20000
1#
0$
13
06
1=
1;
1:
09
17
1%
0'
1(
1)
1+
#30000
1$
16
0;
19
1'
0)
#40000
1"
0#
0$
14
03
06
1<
0:
07
0%
0(
1*
#50000
1$
16
1:
08
17
1%
0&
1(
#60000
1#
0$
13
06
1;
1)
#70000
1$
16
0=
0<
0;
0:
18
1&
0(
0)
0*
0+
#80000
1!
0"
0#
0$
15
04
03
06
1=
1<
1;
1:
1(
1)
1*
1+
#90000
1$
16
0;
0)
#100000
1#
0$
13
06
1;
09
0'
1)
#110000
1$
16
0;
19
1'
0)
#120000
1"
0#
0$
14
03
06
#130000
1$
16
08
0&
#140000
1#
0$
13
06
1;
1)
#150000
1$
16
0;
18
1&
0)
#160000
0!
0"
0#
0$
05
04
03
06
0=
1;
1)
0+
#170000
1$
16
0<
0;
0:
07
0%
0(
0)
0*
#180000
1#
0$
13
06
1=
1;
1:
09
17
1%
0'
1(
1)
1+
#190000
1$
16
0;
19
1'
0)
#200000
1"
0#
0$
14
03
06
1<
0:
07
0%
0(
1*
#210000
1$
16
1:
08
17
1%
0&
1(
#220000
1#
0$
13
06
1;
1)
#230000
1$
16
0=
0<
0;
0:
18
1&
0(
0)
0*
0+
#240000
1!
0"
0#
0$
15
04
03
06
1=
1<
1;
1:
1(
1)
1*
1+
#250000
1$
16
0;
0)
#260000
1#
0$
13
06
1;
09
0'
1)
#270000
1$
16
0;
19
1'
0)
#280000
1"
0#
0$
14
03
06
#290000
1$
16
08
0&
#300000
1#
0$
13
06
1;
1)
#310000
1$
16
0;
18
1&
0)
#320000
0!
0"
0#
0$
05
04
03
06
0=
1;
1)
0+
#330000
1$
16
0<
0;
0:
07
0%
0(
0)
0*
#340000
1#
0$
13
06
1=
1;
1:
09
17
1%
0'
1(
1)
1+
#350000
1$
16
0;
19
1'
0)
#360000
1"
0#
0$
14
03
06
1<
0:
07
0%
0(
1*
#370000
1$
16
1:
08
17
1%
0&
1(
#380000
1#
0$
13
06
1;
1)
#390000
1$
16
0=
0<
0;
0:
18
1&
0(
0)
0*
0+
#400000
1!
0"
0#
0$
15
04
03
06
1=
1<
1;
1:
1(
1)
1*
1+
#410000
1$
16
0;
0)
#420000
1#
0$
13
06
1;
09
0'
1)
#430000
1$
16
0;
19
1'
0)
#440000
1"
0#
0$
14
03
06
#450000
1$
16
08
0&
#460000
1#
0$
13
06
1;
1)
#470000
1$
16
0;
18
1&
0)
#480000
0!
0"
0#
0$
05
04
03
06
0=
1;
1)
0+
#490000
1$
16
0<
0;
0:
07
0%
0(
0)
0*
#500000
1#
0$
13
06
1=
1;
1:
09
17
1%
0'
1(
1)
1+
#510000
1$
16
0;
19
1'
0)
#520000
1"
0#
0$
14
03
06
1<
0:
07
0%
0(
1*
#530000
1$
16
1:
08
17
1%
0&
1(
#540000
1#
0$
13
06
1;
1)
#550000
1$
16
0=
0<
0;
0:
18
1&
0(
0)
0*
0+
#560000
1!
0"
0#
0$
15
04
03
06
1=
1<
1;
1:
1(
1)
1*
1+
#570000
1$
16
0;
0)
#580000
1#
0$
13
06
1;
09
0'
1)
#590000
1$
16
0;
19
1'
0)
#600000
1"
0#
0$
14
03
06
#610000
1$
16
08
0&
#620000
1#
0$
13
06
1;
1)
#630000
1$
16
0;
18
1&
0)
#640000
0!
0"
0#
0$
05
04
03
06
0=
1;
1)
0+
#650000
1$
16
0<
0;
0:
07
0%
0(
0)
0*
#660000
1#
0$
13
06
1=
1;
1:
09
17
1%
0'
1(
1)
1+
#670000
1$
16
0;
19
1'
0)
#680000
1"
0#
0$
14
03
06
1<
0:
07
0%
0(
1*
#690000
1$
16
1:
08
17
1%
0&
1(
#700000
1#
0$
13
06
1;
1)
#710000
1$
16
0=
0<
0;
0:
18
1&
0(
0)
0*
0+
#720000
1!
0"
0#
0$
15
04
03
06
1=
1<
1;
1:
1(
1)
1*
1+
#730000
1$
16
0;
0)
#740000
1#
0$
13
06
1;
09
0'
1)
#750000
1$
16
0;
19
1'
0)
#760000
1"
0#
0$
14
03
06
#770000
1$
16
08
0&
#780000
1#
0$
13
06
1;
1)
#790000
1$
16
0;
18
1&
0)
#800000
0!
0"
0#
0$
05
04
03
06
0=
1;
1)
0+
#810000
1$
16
0<
0;
0:
07
0%
0(
0)
0*
#820000
1#
0$
13
06
1=
1;
1:
09
17
1%
0'
1(
1)
1+
#830000
1$
16
0;
19
1'
0)
#840000
1"
0#
0$
14
03
06
1<
0:
07
0%
0(
1*
#850000
1$
16
1:
08
17
1%
0&
1(
#860000
1#
0$
13
06
1;
1)
#870000
1$
16
0=
0<
0;
0:
18
1&
0(
0)
0*
0+
#880000
1!
0"
0#
0$
15
04
03
06
1=
1<
1;
1:
1(
1)
1*
1+
#890000
1$
16
0;
0)
#900000
1#
0$
13
06
1;
09
0'
1)
#910000
1$
16
0;
19
1'
0)
#920000
1"
0#
0$
14
03
06
#930000
1$
16
08
0&
#940000
1#
0$
13
06
1;
1)
#950000
1$
16
0;
18
1&
0)
#960000
0!
0"
0#
0$
05
04
03
06
0=
1;
1)
0+
#970000
1$
16
0<
0;
0:
07
0%
0(
0)
0*
#980000
1#
0$
13
06
1=
1;
1:
09
17
1%
0'
1(
1)
1+
#990000
1$
16
0;
19
1'
0)
