display_case/simulation/qsim/dipslay_case.msim.vcd
$comment
	File created using the following command:
		vcd file dipslay_case.msim.vcd -direction
$end
$date
	Fri Oct 01 14:24:51 2021
$end
$version
	ModelSim Version 2020.1
$end
$timescale
	1ps
$end

$scope module dipslay_case_vlg_vec_tst $end
$var reg 1 ! x1 $end
$var reg 1 " x2 $end
$var reg 1 # x3 $end
$var reg 1 $ x4 $end
$var wire 1 % SA $end
$var wire 1 & SB $end
$var wire 1 ' SC $end
$var wire 1 ( SD $end
$var wire 1 ) SE $end
$var wire 1 * SF $end
$var wire 1 + SG $end

$scope module i1 $end
$var wire 1 , gnd $end
$var wire 1 - vcc $end
$var wire 1 . unknown $end
$var tri1 1 / devclrn $end
$var tri1 1 0 devpor $end
$var tri1 1 1 devoe $end
$var wire 1 2 ~QUARTUS_CREATED_GND~I_combout $end
$var wire 1 3 x1~input_o $end
$var wire 1 4 x4~input_o $end
$var wire 1 5 x2~input_o $end
$var wire 1 6 x3~input_o $end
$var wire 1 7 SA~0_combout $end
$var wire 1 8 WideOr0~0_combout $end
$var wire 1 9 SA$latch~combout $end
$upscope $end
$upscope $end
$enddefinitions $end
#0
$dumpvars
0!
0"
0#
0$
1%
0&
0'
0(
0)
0*
0+
0,
1-
x.
1/
10
11
02
03
04
05
06
07
18
19
$end
#10000
1$
14
17
09
0%
#20000
1#
0$
16
04
07
19
1%
#30000
1$
14
#40000
1"
0#
0$
15
06
04
17
09
0%
#50000
1$
14
07
19
1%
#60000
1#
0$
16
04
#70000
1$
14
#80000
1!
0"
0#
0$
13
05
06
04
#90000
1$
14
#100000
1#
0$
16
04
08
#110000
1$
14
#120000
1"
0#
0$
15
06
04
#130000
1$
14
#140000
1#
0$
16
04
#150000
1$
14
#160000
0!
0"
0#
0$
03
05
06
04
18
#170000
1$
14
17
09
0%
#180000
1#
0$
16
04
07
19
1%
#190000
1$
14
#200000
1"
0#
0$
15
06
04
17
09
0%
#210000
1$
14
07
19
1%
#220000
1#
0$
16
04
#230000
1$
14
#240000
1!
0"
0#
0$
13
05
06
04
#250000
1$
14
#260000
1#
0$
16
04
08
#270000
1$
14
#280000
1"
0#
0$
15
06
04
#290000
1$
14
#300000
1#
0$
16
04
#310000
1$
14
#320000
0!
0"
0#
0$
03
05
06
04
18
#330000
1$
14
17
09
0%
#340000
1#
0$
16
04
07
19
1%
#350000
1$
14
#360000
1"
0#
0$
15
06
04
17
09
0%
#370000
1$
14
07
19
1%
#380000
1#
0$
16
04
#390000
1$
14
#400000
1!
0"
0#
0$
13
05
06
04
#410000
1$
14
#420000
1#
0$
16
04
08
#430000
1$
14
#440000
1"
0#
0$
15
06
04
#450000
1$
14
#460000
1#
0$
16
04
#470000
1$
14
#480000
0!
0"
0#
0$
03
05
06
04
18
#490000
1$
14
17
09
0%
#500000
1#
0$
16
04
07
19
1%
#510000
1$
14
#520000
1"
0#
0$
15
06
04
17
09
0%
#530000
1$
14
07
19
1%
#540000
1#
0$
16
04
#550000
1$
14
#560000
1!
0"
0#
0$
13
05
06
04
#570000
1$
14
#580000
1#
0$
16
04
08
#590000
1$
14
#600000
1"
0#
0$
15
06
04
#610000
1$
14
#620000
1#
0$
16
04
#630000
1$
14
#640000
0!
0"
0#
0$
03
05
06
04
18
#650000
1$
14
17
09
0%
#660000
1#
0$
16
04
07
19
1%
#670000
1$
14
#680000
1"
0#
0$
15
06
04
17
09
0%
#690000
1$
14
07
19
1%
#700000
1#
0$
16
04
#710000
1$
14
#720000
1!
0"
0#
0$
13
05
06
04
#730000
1$
14
#740000
1#
0$
16
04
08
#750000
1$
14
#760000
1"
0#
0$
15
06
04
#770000
1$
14
#780000
1#
0$
16
04
#790000
1$
14
#800000
0!
0"
0#
0$
03
05
06
04
18
#810000
1$
14
17
09
0%
#820000
1#
0$
16
04
07
19
1%
#830000
1$
14
#840000
1"
0#
0$
15
06
04
17
09
0%
#850000
1$
14
07
19
1%
#860000
1#
0$
16
04
#870000
1$
14
#880000
1!
0"
0#
0$
13
05
06
04
#890000
1$
14
#900000
1#
0$
16
04
08
#910000
1$
14
#920000
1"
0#
0$
15
06
04
#930000
1$
14
#940000
1#
0$
16
04
#950000
1$
14
#960000
0!
0"
0#
0$
03
05
06
04
18
#970000
1$
14
17
09
0%
#980000
1#
0$
16
04
07
19
1%
#990000
1$
14
